\relax 
\providecommand\hyper@newdestlabel[2]{}
\providecommand\HyperFirstAtBeginDocument{\AtBeginDocument}
\HyperFirstAtBeginDocument{\ifx\hyper@anchor\@undefined
\global\let\oldcontentsline\contentsline
\gdef\contentsline#1#2#3#4{\oldcontentsline{#1}{#2}{#3}}
\global\let\oldnewlabel\newlabel
\gdef\newlabel#1#2{\newlabelxx{#1}#2}
\gdef\newlabelxx#1#2#3#4#5#6{\oldnewlabel{#1}{{#2}{#3}}}
\AtEndDocument{\ifx\hyper@anchor\@undefined
\let\contentsline\oldcontentsline
\let\newlabel\oldnewlabel
\fi}
\fi}
\global\let\hyper@last\relax 
\gdef\HyperFirstAtBeginDocument#1{#1}
\providecommand\HyField@AuxAddToFields[1]{}
\providecommand\HyField@AuxAddToCoFields[2]{}
\@writefile{toc}{\contentsline {chapter}{\numberline {1}R\discretionary {\unhbox \voidb@x \hbox {\relax \fontsize  {7}{8}\selectfont  $\leftarrow \joinrel  \rhook $}}{}{}E\discretionary {\unhbox \voidb@x \hbox {\relax \fontsize  {7}{8}\selectfont  $\leftarrow \joinrel  \rhook $}}{}{}A\discretionary {\unhbox \voidb@x \hbox {\relax \fontsize  {7}{8}\selectfont  $\leftarrow \joinrel  \rhook $}}{}{}D\discretionary {\unhbox \voidb@x \hbox {\relax \fontsize  {7}{8}\selectfont  $\leftarrow \joinrel  \rhook $}}{}{}M\discretionary {\unhbox \voidb@x \hbox {\relax \fontsize  {7}{8}\selectfont  $\leftarrow \joinrel  \rhook $}}{}{}E}{1}{chapter.1}}
\@writefile{lof}{\addvspace {10\p@ }}
\@writefile{lot}{\addvspace {10\p@ }}
\newlabel{md__r_e_a_d_m_e}{{1}{1}{R\+E\+A\+D\+M\+E}{chapter.1}{}}
\@writefile{toc}{\contentsline {chapter}{\numberline {2}Data Structure Index}{3}{chapter.2}}
\@writefile{lof}{\addvspace {10\p@ }}
\@writefile{lot}{\addvspace {10\p@ }}
\@writefile{toc}{\contentsline {section}{\numberline {2.1}Data Structures}{3}{section.2.1}}
\@writefile{toc}{\contentsline {chapter}{\numberline {3}File Index}{5}{chapter.3}}
\@writefile{lof}{\addvspace {10\p@ }}
\@writefile{lot}{\addvspace {10\p@ }}
\@writefile{toc}{\contentsline {section}{\numberline {3.1}File List}{5}{section.3.1}}
\@writefile{toc}{\contentsline {chapter}{\numberline {4}Data Structure Documentation}{7}{chapter.4}}
\@writefile{lof}{\addvspace {10\p@ }}
\@writefile{lot}{\addvspace {10\p@ }}
\@writefile{toc}{\contentsline {section}{\numberline {4.1}grid Struct Reference}{7}{section.4.1}}
\newlabel{structgrid}{{4.1}{7}{grid Struct Reference}{section.4.1}{}}
\@writefile{toc}{\contentsline {subsection}{\numberline {4.1.1}Detailed Description}{7}{subsection.4.1.1}}
\@writefile{toc}{\contentsline {subsection}{\numberline {4.1.2}Field Documentation}{7}{subsection.4.1.2}}
\@writefile{toc}{\contentsline {subsubsection}{\numberline {4.1.2.1}m}{7}{subsubsection.4.1.2.1}}
\newlabel{structgrid_a566006cd32b3327de631cd188e675fba}{{4.1.2.1}{7}{m}{subsubsection.4.1.2.1}{}}
\@writefile{toc}{\contentsline {subsubsection}{\numberline {4.1.2.2}size}{7}{subsubsection.4.1.2.2}}
\newlabel{structgrid_a439227feff9d7f55384e8780cfc2eb82}{{4.1.2.2}{7}{size}{subsubsection.4.1.2.2}{}}
\@writefile{toc}{\contentsline {chapter}{\numberline {5}File Documentation}{9}{chapter.5}}
\@writefile{lof}{\addvspace {10\p@ }}
\@writefile{lot}{\addvspace {10\p@ }}
\@writefile{toc}{\contentsline {section}{\numberline {5.1}grid.\discretionary {\unhbox \voidb@x \hbox {\relax \fontsize  {7}{8}\selectfont  $\leftarrow \joinrel  \rhook $}}{}{}c File Reference}{9}{section.5.1}}
\newlabel{grid_8c}{{5.1}{9}{grid.\+c File Reference}{section.5.1}{}}
\gdef \PWST@i{1}
\@writefile{toc}{\contentsline {subsection}{\numberline {5.1.1}Detailed Description}{10}{subsection.5.1.1}}
\@writefile{toc}{\contentsline {subsection}{\numberline {5.1.2}Function Documentation}{10}{subsection.5.1.2}}
\@writefile{toc}{\contentsline {subsubsection}{\numberline {5.1.2.1}change\discretionary {\unhbox \voidb@x \hbox {\relax \fontsize  {7}{8}\selectfont  $\leftarrow \joinrel  \rhook $}}{}{}Color}{10}{subsubsection.5.1.2.1}}
\newlabel{grid_8c_a41dc74e0f0476240f7b12074edd9bcb5}{{5.1.2.1}{10}{change\+Color}{subsubsection.5.1.2.1}{}}
\gdef \PWST@ii{1}
\gdef \PWST@iii{1}
\@writefile{toc}{\contentsline {subsubsection}{\numberline {5.1.2.2}check\discretionary {\unhbox \voidb@x \hbox {\relax \fontsize  {7}{8}\selectfont  $\leftarrow \joinrel  \rhook $}}{}{}Case}{11}{subsubsection.5.1.2.2}}
\newlabel{grid_8c_af95dbd30c91cd1247cfcec7e524241a3}{{5.1.2.2}{11}{check\+Case}{subsubsection.5.1.2.2}{}}
\@writefile{toc}{\contentsline {subsubsection}{\numberline {5.1.2.3}check\discretionary {\unhbox \voidb@x \hbox {\relax \fontsize  {7}{8}\selectfont  $\leftarrow \joinrel  \rhook $}}{}{}For\discretionary {\unhbox \voidb@x \hbox {\relax \fontsize  {7}{8}\selectfont  $\leftarrow \joinrel  \rhook $}}{}{}Win}{11}{subsubsection.5.1.2.3}}
\newlabel{grid_8c_ae835c29980277a7ac2c1a241510fd61d}{{5.1.2.3}{11}{check\+For\+Win}{subsubsection.5.1.2.3}{}}
\@writefile{toc}{\contentsline {subsubsection}{\numberline {5.1.2.4}empty}{12}{subsubsection.5.1.2.4}}
\newlabel{grid_8c_a4385d67459df9a986ca9ca76fe62d2e8}{{5.1.2.4}{12}{empty}{subsubsection.5.1.2.4}{}}
\gdef \PWST@iv{1}
\gdef \PWST@v{1}
\@writefile{toc}{\contentsline {subsubsection}{\numberline {5.1.2.5}file\discretionary {\unhbox \voidb@x \hbox {\relax \fontsize  {7}{8}\selectfont  $\leftarrow \joinrel  \rhook $}}{}{}\_\discretionary {\unhbox \voidb@x \hbox {\relax \fontsize  {7}{8}\selectfont  $\leftarrow \joinrel  \rhook $}}{}{}init}{13}{subsubsection.5.1.2.5}}
\newlabel{grid_8c_a0607b18ba3c02621fb1338311d281d38}{{5.1.2.5}{13}{file\+\_\+init}{subsubsection.5.1.2.5}{}}
\gdef \PWST@vi{1}
\@writefile{toc}{\contentsline {subsubsection}{\numberline {5.1.2.6}find4\discretionary {\unhbox \voidb@x \hbox {\relax \fontsize  {7}{8}\selectfont  $\leftarrow \joinrel  \rhook $}}{}{}Connexe}{14}{subsubsection.5.1.2.6}}
\newlabel{grid_8c_ab88d42f08a075f0e330e033c78f3559b}{{5.1.2.6}{14}{find4\+Connexe}{subsubsection.5.1.2.6}{}}
\@writefile{toc}{\contentsline {subsubsection}{\numberline {5.1.2.7}init\discretionary {\unhbox \voidb@x \hbox {\relax \fontsize  {7}{8}\selectfont  $\leftarrow \joinrel  \rhook $}}{}{}\_\discretionary {\unhbox \voidb@x \hbox {\relax \fontsize  {7}{8}\selectfont  $\leftarrow \joinrel  \rhook $}}{}{}grid}{14}{subsubsection.5.1.2.7}}
\newlabel{grid_8c_accebbc3cd9a7b68460a26728f7866eb0}{{5.1.2.7}{14}{init\+\_\+grid}{subsubsection.5.1.2.7}{}}
\gdef \PWST@vii{1}
\gdef \PWST@viii{1}
\@writefile{toc}{\contentsline {subsubsection}{\numberline {5.1.2.8}print\discretionary {\unhbox \voidb@x \hbox {\relax \fontsize  {7}{8}\selectfont  $\leftarrow \joinrel  \rhook $}}{}{}Grid}{15}{subsubsection.5.1.2.8}}
\newlabel{grid_8c_ad4a706e377b5191dc85f9d2deb5615f5}{{5.1.2.8}{15}{print\+Grid}{subsubsection.5.1.2.8}{}}
\@writefile{toc}{\contentsline {subsubsection}{\numberline {5.1.2.9}rand\discretionary {\unhbox \voidb@x \hbox {\relax \fontsize  {7}{8}\selectfont  $\leftarrow \joinrel  \rhook $}}{}{}\_\discretionary {\unhbox \voidb@x \hbox {\relax \fontsize  {7}{8}\selectfont  $\leftarrow \joinrel  \rhook $}}{}{}init}{15}{subsubsection.5.1.2.9}}
\newlabel{grid_8c_a12702af6616df95184186adba13896f3}{{5.1.2.9}{15}{rand\+\_\+init}{subsubsection.5.1.2.9}{}}
\gdef \PWST@ix{1}
\gdef \PWST@x{1}
\@writefile{toc}{\contentsline {subsubsection}{\numberline {5.1.2.10}set\discretionary {\unhbox \voidb@x \hbox {\relax \fontsize  {7}{8}\selectfont  $\leftarrow \joinrel  \rhook $}}{}{}Color\discretionary {\unhbox \voidb@x \hbox {\relax \fontsize  {7}{8}\selectfont  $\leftarrow \joinrel  \rhook $}}{}{}At}{16}{subsubsection.5.1.2.10}}
\newlabel{grid_8c_a4561a1facf0ce420ffda24f4e0d147ce}{{5.1.2.10}{16}{set\+Color\+At}{subsubsection.5.1.2.10}{}}
\@writefile{toc}{\contentsline {section}{\numberline {5.2}grid.\discretionary {\unhbox \voidb@x \hbox {\relax \fontsize  {7}{8}\selectfont  $\leftarrow \joinrel  \rhook $}}{}{}h File Reference}{17}{section.5.2}}
\newlabel{grid_8h}{{5.2}{17}{grid.\+h File Reference}{section.5.2}{}}
\gdef \PWST@xi{1}
\@writefile{toc}{\contentsline {subsection}{\numberline {5.2.1}Typedef Documentation}{18}{subsection.5.2.1}}
\@writefile{toc}{\contentsline {subsubsection}{\numberline {5.2.1.1}grid}{18}{subsubsection.5.2.1.1}}
\newlabel{grid_8h_adf578708a53b2e27722c1c852226cc1e}{{5.2.1.1}{18}{grid}{subsubsection.5.2.1.1}{}}
\@writefile{toc}{\contentsline {subsection}{\numberline {5.2.2}Function Documentation}{18}{subsection.5.2.2}}
\@writefile{toc}{\contentsline {subsubsection}{\numberline {5.2.2.1}change\discretionary {\unhbox \voidb@x \hbox {\relax \fontsize  {7}{8}\selectfont  $\leftarrow \joinrel  \rhook $}}{}{}Color}{18}{subsubsection.5.2.2.1}}
\newlabel{grid_8h_a41dc74e0f0476240f7b12074edd9bcb5}{{5.2.2.1}{18}{change\+Color}{subsubsection.5.2.2.1}{}}
\gdef \PWST@xii{1}
\gdef \PWST@xiii{1}
\@writefile{toc}{\contentsline {subsubsection}{\numberline {5.2.2.2}check\discretionary {\unhbox \voidb@x \hbox {\relax \fontsize  {7}{8}\selectfont  $\leftarrow \joinrel  \rhook $}}{}{}Case}{19}{subsubsection.5.2.2.2}}
\newlabel{grid_8h_af95dbd30c91cd1247cfcec7e524241a3}{{5.2.2.2}{19}{check\+Case}{subsubsection.5.2.2.2}{}}
\@writefile{toc}{\contentsline {subsubsection}{\numberline {5.2.2.3}check\discretionary {\unhbox \voidb@x \hbox {\relax \fontsize  {7}{8}\selectfont  $\leftarrow \joinrel  \rhook $}}{}{}For\discretionary {\unhbox \voidb@x \hbox {\relax \fontsize  {7}{8}\selectfont  $\leftarrow \joinrel  \rhook $}}{}{}Win}{19}{subsubsection.5.2.2.3}}
\newlabel{grid_8h_ae835c29980277a7ac2c1a241510fd61d}{{5.2.2.3}{19}{check\+For\+Win}{subsubsection.5.2.2.3}{}}
\@writefile{toc}{\contentsline {subsubsection}{\numberline {5.2.2.4}empty}{20}{subsubsection.5.2.2.4}}
\newlabel{grid_8h_a4385d67459df9a986ca9ca76fe62d2e8}{{5.2.2.4}{20}{empty}{subsubsection.5.2.2.4}{}}
\gdef \PWST@xiv{1}
\gdef \PWST@xv{1}
\@writefile{toc}{\contentsline {subsubsection}{\numberline {5.2.2.5}file\discretionary {\unhbox \voidb@x \hbox {\relax \fontsize  {7}{8}\selectfont  $\leftarrow \joinrel  \rhook $}}{}{}\_\discretionary {\unhbox \voidb@x \hbox {\relax \fontsize  {7}{8}\selectfont  $\leftarrow \joinrel  \rhook $}}{}{}init}{21}{subsubsection.5.2.2.5}}
\newlabel{grid_8h_a0607b18ba3c02621fb1338311d281d38}{{5.2.2.5}{21}{file\+\_\+init}{subsubsection.5.2.2.5}{}}
\gdef \PWST@xvi{1}
\gdef \PWST@xvii{1}
\@writefile{toc}{\contentsline {subsubsection}{\numberline {5.2.2.6}find4\discretionary {\unhbox \voidb@x \hbox {\relax \fontsize  {7}{8}\selectfont  $\leftarrow \joinrel  \rhook $}}{}{}Connexe}{22}{subsubsection.5.2.2.6}}
\newlabel{grid_8h_ab88d42f08a075f0e330e033c78f3559b}{{5.2.2.6}{22}{find4\+Connexe}{subsubsection.5.2.2.6}{}}
\@writefile{toc}{\contentsline {subsubsection}{\numberline {5.2.2.7}init\discretionary {\unhbox \voidb@x \hbox {\relax \fontsize  {7}{8}\selectfont  $\leftarrow \joinrel  \rhook $}}{}{}\_\discretionary {\unhbox \voidb@x \hbox {\relax \fontsize  {7}{8}\selectfont  $\leftarrow \joinrel  \rhook $}}{}{}grid}{22}{subsubsection.5.2.2.7}}
\newlabel{grid_8h_accebbc3cd9a7b68460a26728f7866eb0}{{5.2.2.7}{22}{init\+\_\+grid}{subsubsection.5.2.2.7}{}}
\gdef \PWST@xviii{1}
\@writefile{toc}{\contentsline {subsubsection}{\numberline {5.2.2.8}print\discretionary {\unhbox \voidb@x \hbox {\relax \fontsize  {7}{8}\selectfont  $\leftarrow \joinrel  \rhook $}}{}{}Grid}{23}{subsubsection.5.2.2.8}}
\newlabel{grid_8h_ad4a706e377b5191dc85f9d2deb5615f5}{{5.2.2.8}{23}{print\+Grid}{subsubsection.5.2.2.8}{}}
\@writefile{toc}{\contentsline {subsubsection}{\numberline {5.2.2.9}rand\discretionary {\unhbox \voidb@x \hbox {\relax \fontsize  {7}{8}\selectfont  $\leftarrow \joinrel  \rhook $}}{}{}\_\discretionary {\unhbox \voidb@x \hbox {\relax \fontsize  {7}{8}\selectfont  $\leftarrow \joinrel  \rhook $}}{}{}init}{23}{subsubsection.5.2.2.9}}
\newlabel{grid_8h_a12702af6616df95184186adba13896f3}{{5.2.2.9}{23}{rand\+\_\+init}{subsubsection.5.2.2.9}{}}
\gdef \PWST@xix{2}
\gdef \PWST@xx{1}
\@writefile{toc}{\contentsline {subsubsection}{\numberline {5.2.2.10}set\discretionary {\unhbox \voidb@x \hbox {\relax \fontsize  {7}{8}\selectfont  $\leftarrow \joinrel  \rhook $}}{}{}Color\discretionary {\unhbox \voidb@x \hbox {\relax \fontsize  {7}{8}\selectfont  $\leftarrow \joinrel  \rhook $}}{}{}At}{24}{subsubsection.5.2.2.10}}
\newlabel{grid_8h_a4561a1facf0ce420ffda24f4e0d147ce}{{5.2.2.10}{24}{set\+Color\+At}{subsubsection.5.2.2.10}{}}
\@writefile{toc}{\contentsline {section}{\numberline {5.3}main.\discretionary {\unhbox \voidb@x \hbox {\relax \fontsize  {7}{8}\selectfont  $\leftarrow \joinrel  \rhook $}}{}{}c File Reference}{25}{section.5.3}}
\newlabel{main_8c}{{5.3}{25}{main.\+c File Reference}{section.5.3}{}}
\@writefile{toc}{\contentsline {subsection}{\numberline {5.3.1}Function Documentation}{25}{subsection.5.3.1}}
\@writefile{toc}{\contentsline {subsubsection}{\numberline {5.3.1.1}main}{25}{subsubsection.5.3.1.1}}
\newlabel{main_8c_ae66f6b31b5ad750f1fe042a706a4e3d4}{{5.3.1.1}{25}{main}{subsubsection.5.3.1.1}{}}
\@writefile{toc}{\contentsline {section}{\numberline {5.4}R\discretionary {\unhbox \voidb@x \hbox {\relax \fontsize  {7}{8}\selectfont  $\leftarrow \joinrel  \rhook $}}{}{}E\discretionary {\unhbox \voidb@x \hbox {\relax \fontsize  {7}{8}\selectfont  $\leftarrow \joinrel  \rhook $}}{}{}A\discretionary {\unhbox \voidb@x \hbox {\relax \fontsize  {7}{8}\selectfont  $\leftarrow \joinrel  \rhook $}}{}{}D\discretionary {\unhbox \voidb@x \hbox {\relax \fontsize  {7}{8}\selectfont  $\leftarrow \joinrel  \rhook $}}{}{}M\discretionary {\unhbox \voidb@x \hbox {\relax \fontsize  {7}{8}\selectfont  $\leftarrow \joinrel  \rhook $}}{}{}E.\discretionary {\unhbox \voidb@x \hbox {\relax \fontsize  {7}{8}\selectfont  $\leftarrow \joinrel  \rhook $}}{}{}md File Reference}{26}{section.5.4}}
\newlabel{_r_e_a_d_m_e_8md}{{5.4}{26}{R\+E\+A\+D\+M\+E.\+md File Reference}{section.5.4}{}}
